…
salary_rank <- arrange(team_salary,desc(sum_salary))
salary_rank
```

    ## # A tibble: 30 x 2
    ##     team sum_salary
    ##    <chr>      <dbl>
    ##  1   CLE     125.79
    ##  2   LAC     114.78
    ##  3   TOR     108.46
    ##  4   MEM     108.34
    ##  5   SAS     104.69
    ##  6   DET     103.07
    ##  7   POR     103.03
    ##  8   ORL     102.41
    ##  9   CHO     100.25
    ## 10   WAS      98.78
    ## # ... with 20 more rows
…
